<svg style="position: absolute; width: 0; height: 0; overflow: hidden;" version="1.1"
     xmlns="http://www.w3.org/2000/svg">
    <defs>
        <symbol id="columns" viewBox="0 0 24 24">
            <title>columns</title>
            <path d="M15.984 5.016h5.016v12.984h-5.016v-12.984zM3.984 18v-12.984h5.016v12.984h-5.016zM9.984 18v-12.984h5.016v12.984h-5.016z"></path>
        </symbol>
    </defs>
</svg>
